// Jest Snapshot v1, https://goo.gl/fbAQLP

exports[`eventsResolver query events: event days 1`] = `
{
  "data": {
    "regions": [
      {
        "email": "region2@asdf.ch",
        "events": [
          [],
          [],
          [
            {
              "description": "ev3",
              "from": "2030-05-06T20:10:00+08:00",
              "genres": [
                {
                  "category": {
                    "color": "fdfdfd",
                    "name": "gcat2",
                  },
                  "name": "another genre",
                },
              ],
              "hasTime": true,
              "isHidden": false,
              "links": [
                {
                  "label": "ld",
                  "url": "https://link.com",
                },
              ],
              "until": "2030-05-07T04:10:00+08:00",
              "venue": {
                "address": "venue address 3",
                "email": "ven@ue3.com",
                "latitude": -5.2,
                "longitude": 4.1,
                "name": "venue-3",
                "url": "https://venue3.com",
              },
            },
          ],
        ],
        "name": "Hong Kong",
        "slug": "region2",
      },
      {
        "email": "region1@asdf.ch",
        "events": [
          [],
          [],
          [
            {
              "description": "ev1",
              "from": "2030-05-06T15:00:00+02:00",
              "genres": [
                {
                  "category": {
                    "color": "fdfdfd",
                    "name": "gcat1",
                  },
                  "name": "punk",
                },
                {
                  "category": {
                    "color": "fdfdfd",
                    "name": "gcat1",
                  },
                  "name": "rock",
                },
              ],
              "hasTime": true,
              "isHidden": false,
              "links": [
                {
                  "label": "l",
                  "url": "https://url.com",
                },
              ],
              "until": "2030-05-06T16:20:00+02:00",
              "venue": {
                "address": "venue address",
                "email": "ven@ue.com",
                "latitude": -3.2,
                "longitude": 3.1,
                "name": "venue-1",
                "url": "https://venue.com",
              },
            },
            {
              "description": "ev2",
              "from": "2030-05-06T15:10:00+02:00",
              "genres": [
                {
                  "category": {
                    "color": "fdfdfd",
                    "name": "gcat1",
                  },
                  "name": "rock",
                },
              ],
              "hasTime": true,
              "isHidden": false,
              "links": [
                {
                  "label": "ld",
                  "url": "https://link.com",
                },
              ],
              "until": "2030-05-06T18:50:00+02:00",
              "venue": {
                "address": "venue address 2",
                "email": "ven@ue2.com",
                "latitude": null,
                "longitude": null,
                "name": "venue-2",
                "url": "https://venue2.com",
              },
            },
          ],
        ],
        "name": "Zurich",
        "slug": "region1",
      },
    ],
  },
}
`;
